38
The structure here is useless! Only to get element indices for lj_fit
Pt      22.17737408      21.64534709      23.07560850
Pt      21.33742160      21.69938265      20.27305251
P       22.03090689      23.95868521      23.17110419
P       22.27404209      19.27945768      23.02280516
P       24.46547489      21.72276643      22.57853378
P       19.80917949      21.62804452      23.67583751
P       21.49246719      19.34198614      20.03319092
P       21.28555545      24.05210189      20.32855680
P       19.06417099      21.58261611      20.70131001
P       23.74129316      21.76337671      19.75131920
O       21.06481889      24.57498328      21.95088154
O       22.21094061      18.65629819      21.41188792
O       24.70342011      21.19686792      21.01720262
O       18.79683508      21.26696453      22.35656372
O       23.38592198      24.74763311      23.09382518
O       21.18778672      18.59011214      23.95198570
O       25.20985444      20.69717343      23.45356650
O       19.13634375      22.91043874      24.32650539
O       20.16978904      18.53361338      19.80998262
O       22.47156656      24.91695702      19.85265060
O       18.27510668      22.85917391      20.29199124
O       24.18098529      20.72869894      18.66790235
O       21.18999206      24.42311124      24.50608376
O       23.66804933      18.67052862      23.62748714
O       25.28403288      23.11651889      22.58656159
O       19.44905428      20.35060313      24.65827032
O       22.49000442      18.82253298      18.83842976
O       19.93204479      24.68042722      19.61784129
O       18.29759339      20.26374265      20.10597733
O       24.35259369      23.25536659      19.38875197
H       20.29272232      23.85396528      24.53688784
H       24.41414909      19.42489836      23.56244527
H       24.58113849      23.89065605      22.77792548
H       20.15268584      19.58855999      24.42554328
H       23.19937616      19.58546261      18.64547030
H       19.14631067      23.98474757      19.79082406
H       19.02435383      19.51181274      19.88187275
H       23.64494708      23.98602605      19.67769434
